{
  "orgName": "Demo company",
  "edition": "Developer",
<<<<<<< HEAD
  "features": [],
  "settings": {
    "lightningExperienceSettings": {
        "enableS1DesktopEnabled": true
    },
    "securitySettings": {
        "passwordPolicies": {
            "enableSetPasswordInApi": true
        }
    },
    "mobileSettings": {
        "enableS1EncryptedStoragePref2": false
    }
  }
=======
  "features": []
>>>>>>> 444280068647da1b8e64500c2483daa4dc4f4a97
}
